ID|Concept|Tags
C000000|WORCESTERSHIRE SAUCE|443701000124100;227519005
C000001|CREAM CHEESE|226849005;102264005;255621006
C000002|CHEESE|102264005
C000003|OLIVES|227436000
C000004|ONION|735047000
C000005|BEEF|226916002
C000006|MOZZARELLA CHEESE|226837009;102264005
C000007|PARMESAN CHEESE|226838004;102264005
C000008|TORTILLA CHIPS|227592002;227282006;226587006
C000009|MAYONNAISE|227549007
C000010|ARTICHOKE|227215000
C000011|ALMONDS|256350002
C000012|GARLIC|735030001
C000013|LEMON JUICE|735340006;226495007;129559002
C000014|OLIVE OIL|41834005;411317002
C000015|ROSEMARY|227410007
C000016|HUMMUS|227349006
C000017|HONEY|227598003
C000018|VEGETABLE OIL|22836000;412552006
C000019|TORTILLA|226587006
C000020|CHICKEN|226955001
C000021|COOKIE|444001000124100
C000022|SAUCE|227519005
C000023|CORN|412357001
C000024|PICKLE|227538001
C000025|MEAT|28647000
C000026|SALAD DRESSING|227545001;227927005
C000027|CHEDDAR CHEESE|102264005;226820002
C000028|MILK|70813002
C000029|ALLSPICE|227375005
C000030|PEPPER|412066006;227563001
C000031|RICE|67324005
C000032|LAMB|226942002
C000033|BROWN SUGAR|230055000
C000034|CINNAMON|227388008
C000035|JUICE|129559002
C000036|WHITE SUGAR|230053007
C000037|VANILLA|412070003
C000038|ALMOND|256350002
C000039|JALAPENO PEPPER|442681000124105;412066006
C000040|BELL PEPPER|412066006;442691000124108
C000041|RED PEPPER|412066006;260180006
C000042|RED ONION|442361000124108;735047000
C000043|CILANTRO|227390009
C000044|LIME|227430006
C000045|SESAME OIL|89707004;428094008
C000046|SOY SAUCE|227519005;227537006
C000047|ZUCCHINI|227239005
C000048|CABBAGE|735108004
C000049|FLOUR|63766005
C000050|PORK SAUSAGE|227020009;227025004;226934003
C000051|SAUERKRAUT|442751000124107
C000052|SAUSAGE|227020009
C000053|MUSTARD|51905005
C000054|PARSLEY|735048005
C000055|BREAD|226559002
C000056|KETCHUP|442891000124107
C000057|BUTTER|226888007
C000058|CREAM|255621006
C000059|PEPPERONI|442771000124102
C000060|BANANA|256307007
C000061|PIZZA|227757007
C000062|DILL|256331002
C000063|PASTA SAUCE|227519005;227535003;226740002
C000064|SPAGHETTI|226744006
C000065|NOODLES|226735005
C000066|MUFFIN|226704004
C000067|PASTA|226740002
C000068|NUT|13577000
C000069|CRACKER|226543002
C000070|NUTMEG|735046009
C000071|BACON|226928005
C000072|SYRUP|229862008
C000073|WHITE PEPPER|442521000124107;412066006
C000074|BLUE CHEESE|102264005;442551000124103
C000075|HOT PEPPER|412066006;442671000124107
C000076|MARGARINE|226890008
C000077|GINGER|227400003
C000078|CRAB|736159005
C000079|CUCUMBER|735213008
C000080|SEAWEED|82114006;227265009
C000081|ITALIAN DRESSING|443721000124105
C000082|CAULIFLOWER|735336002
C000083|HORSERADISH|735040003
C000084|SALMON|735009005
C000085|SHRIMP|278840001
C000086|SOUP|227566009
C000087|PEAS|260184002
C000088|POPCORN|226726003
C000089|BLACK PEPPER|412066006;412060000
C000090|AVOCADO|735249009
C000091|CHILI POWDER|227385006
C000092|BEAN|256354006
C000093|MUSHROOM|735045008
C000094|SEASONING|227553009
C000095|SPINACH|256329006
C000096|EVAPORATED MILK|226787009;70813002
C000097|SPICE|24515005
C000098|VERMICELLI|226748009
C000099|LETTUCE|735042006
C000100|BASIL|735106000
C000101|FISH|735971005
C000102|MINT|226041007
C000103|PAPRIKA|227408005
C000104|POTATO|735053000
C000105|YOGURT|226863004
C000106|THYME|227413009
C000107|CORN SYRUP|229862008;412357001;412064009
C000108|FETA CHEESE|226831005;102264005
C000109|VERMOUTH|608773004
C000110|SHERRY|226057007
C000111|PORK|226934003
C000112|PEANUT BUTTER|226888007;762952008;102260001
C000113|CHOCOLATE|102262009
C000114|OATMEAL|226725004
C000115|CEREAL|23182003
C000116|CHIPS|227282006
C000117|CHEESE SPREAD|102264005;226809002
C000118|BEER|53410008
C000119|CHILI PEPPER|710040007;412066006
C000120|VEGETABLE|22836000
C000121|MAPLE SYRUP|229862008;229865005
C000122|APPLESAUCE|420823005
C000123|CANOLA OIL|713648000;226908006
C000124|RAISINS|227463004
C000125|COCONUT|735211005
C000126|LIQUEUR|226038003
C000127|OYSTER|736031006
C000128|CELERY|256326004
C000129|TOMATO|734881000
C000130|CHERRY|735248001
C000131|EGG WHITE|256443002
C000132|WHISKEY|226528004
C000133|BREADCRUMBS|226562004
C000134|SEAFOOD|44027008
C000135|SWISS CHEESE|442341000124109;102264005
C000136|CORNED BEEF|226916002;227034009
C000137|COCKTAIL|608772009
C000138|SWEET POTATO|735053000;735004000
C000139|POTATO CAKES|735053000;227911003
C000140|TOMATO SAUCE|227519005;734881000;227536002
C000141|SALAD|227927005
C000142|WHITE WINE|67990004;35748005
C000143|MOLASSES|227606003
C000144|TEA|16313001
C000145|BROCCOLI|735123009
C000146|PASTRY|226749001
C000147|BRIE CHEESE|226855000;102264005
C000148|CURRY POWDER|227395004
C000149|JELLY|227722009
C000150|COTTAGE CHEESE|226814003;102264005
C000151|CRANBERRIES|227421003
C000152|CORNMEAL|229948002
C000153|EGGPLANT|227219006
C000154|PEANUT|762952008
C000155|QUINOA|227515004
C000156|BLUEBERRIES|412061001
C000157|OATS|9424004;418504009
C000158|COCONUT MILK|70813002;735211005;227500000
C000159|PINEAPPLE|256313003
C000160|WATERMELON|419420009
C000161|RED WINE|35748005;58732000
C000162|TARRAGON|227412004
C000163|SAGE|227411006
C000164|OREGANO|227407000
C000165|HAM|442861000124104
C000166|PANCAKE|443981000124106
C000167|BAY LEAF|227379004
C000168|WINE|35748005
C000169|PAPAYA|735212003
C000170|COLESLAW|227932006
C000171|CARDAMOM|227382009
C000172|DATES|227423000
C000173|COCONUT OIL|735211005;28942008
C000174|LEMON GRASS|735340006;821000161108
C000175|PUMPKIN|227260004
C000176|WHIPPING CREAM|226802006;255621006
C000177|POTATO CHIPS|735053000;227589001;227282006
C000178|LEMON|735340006
C000179|WHEAT|412071004
C000180|GUACAMOLE|227872003
C000181|QUICHE|227632009
C000182|FRUIT|72511004
C000183|CAKE|226639005
C000184|ALMOND MILK|443691000124100;70813002;256350002
C000185|APPLE|735215001
C000186|BUTTERMILK|226769006
C000187|GRAPES|256317002
C000188|POACHED EGG|226884009
C000189|ASPARAGUS|227218003
C000190|WHEAT FLOUR|229944000;63766005;412071004
C000191|WAFFLE|226719003
C000192|APPLE JUICE|735215001;226491003;129559002
C000193|DRIED FRUIT|227449005;72511004
C000194|BUCKWHEAT|226723006
C000195|PRUNES|227462009
C000196|GHEE|226901000
C000197|WHEAT BRAN|412533000;412071004;317451007
C000198|BRAN|391858005;317451007
C000199|ORANGE JUICE|226496008;129559002
C000200|EGG YOLK|256442007
C000201|EGG SUBSTITUTE|444021000124105
C000202|PROCESSED CHEESE|102264005;226846003
C000203|CHEESE SAUCE|227519005;227522007;102264005
C000204|MALT|710180001
C000205|STRAWBERRIES|102261002
C000206|RICOTTA CHEESE|226853007;102264005
C000207|SANDWICH|735008002
C000208|FLAXSEED|710178007
C000209|STRAWBERRY|102261002
C000210|SCRAMBLED EGG|226886006
C000211|SEMOLINA|226732008
C000212|PORRIDGE|226617008
C000213|CHERRIES|735248001
C000214|GARAM MASALA|227399005
C000215|TURMERIC|227414003
C000216|GLUTEN-FREE FLOUR|328685004;63766005
C000217|SOY MILK|70813002;226793001
C000218|TOFU|227365007
C000219|ROAST BEEF|226916002;226925008
C000220|COD|735245003
C000221|RICE MILK|70813002;67324005;443681000124103
C000222|SPELT|443661000124108
C000223|TAPIOCA|226733003
C000224|CHARD|227236003
C000225|PEACH|735049002
C000226|GRAPEFRUIT JUICE|226493000;256315005;129559002
C000227|COCOA|901000161107
C000228|RASPBERRIES|227444000
C000229|CANTALOUPE|412062008
C000230|GREEN TEA|16313001;412194001
C000231|DRINK|230118003
C000232|WHITE CHOCOLATE|227612008;102262009
C000233|COFFEE|29263009
C000234|GOUDA CHEESE|226832003;102264005
C000235|GRAPESEED OIL|229932003
C000236|POTATO FLOUR|229943006;63766005;735053000
C000237|MUESLI|226611009
C000238|PINEAPPLE JUICE|256313003;129559002;226497004
C000239|APRICOT|735214002
C000240|ICE CREAM|255621006;227708009
C000241|CIDER|226025006
C000242|MASHED POTATO|735053000;227294002
C000243|VODKA|226064009
C000244|CLAM|736030007
C000245|SKIM MILK|70813002;25743006
C000246|JAM|227601008
C000247|CHEESECAKE|226023004
C000248|CONDENSED MILK|226787009;70813002;226784002
C000249|FRUIT JUICE|129560007;129559002;72511004
C000250|BOURBON|226018004
C000251|CANDY|227607007
C000252|GRAHAM CRACKER|226543002;442721000124103
C000253|FIGS|227425007
C000254|SAFFRON|735010000
C000255|MARSHMALLOW|229887001
C000256|WHITE RICE|67324005;226759000
C000257|EGGNOG|442811000124102
C000258|RUM|226054000
C000259|CHOCOLATE CAKE|226647005;226639005;102262009
C000260|CUSTARD|227689008
C000261|PRETZELS|229908005
C000262|DARK CHOCOLATE|102262009;443931000124105
C000263|PEAR|735050002
C000264|ICING|229871004
C000265|CORN STARCH|412357001;229936000
C000266|BREAD PUDDING|226559002;227686001
C000267|RASPBERRY|421013007
C000268|BLACKBERRIES|227418000
C000269|BLACKBERRY|227418000
C000270|MERINGUE|444161000124100
C000271|CARROT|256319004
C000272|PUFF PASTRY|226753004;226749001
C000273|MATZO|226551004
C000274|TOFFEE|227626004
C000275|PEPPERMINT|227625000
C000276|DESSERT|227682004
C000277|MACADAMIA NUTS|227501001
C000278|CORNFLAKES|226604005
C000279|MIXED NUTS|227505005
C000280|GINGERBREAD|226658001
C000281|CUSTARD POWDER|229937009;227689008
C000282|LEMON OIL|57198007;735340006;411366000
C000283|LARD|226899009
C000284|TEQUILA|442581000124106
C000285|HAZELNUT|256353000
C000286|MARTINI|226040008
C000287|GIN|226031009
C000288|LEMONADE|226483007
C000289|BERRY|63045006
C000290|TONIC WATER|226486004
C000291|CRANBERRY|227421003
C000292|RYE|412068007
C000293|TOMATO JUICE|226498009;129559002;734881000
C000294|PASSION FRUIT|227438004;72511004
C000295|MELON|260177005
C000296|SPARKLING WHITE WINE|226519000;67990004
C000297|DRY WHITE WINE|226516007;67990004
C000298|BRANDY|226019007
C000299|GRAPE JUICE|226492005;129559002
C000300|POMEGRANATE|227441008
C000301|ROOT BEER|53410008;412067002
C000302|FLAXSEED OIL|41573001;710178007
C000303|WHISKY|226528004
C000304|CLOVE|227389000
C000305|HONEYDEW MELON|260177005;442531000124105
C000306|SHERBET|227739006
C000307|PORT|226047006
C000308|ENERGY DRINK|230118003;444051000124101
C000309|MACE|227404007
C000310|SQUASH|412065005
C000311|CELERY SEED|256326004;227383004
C000312|FRIED CHICKEN|226955001;226957009
C000313|ROAST CHICKEN|226955001;226961003
C000314|GRAVY MIX|227556001
C000315|GREEN BEAN|256354006;256318007
C000316|MEAT TENDERIZER|442821000124105;28647000
C000317|BROWN RICE|226756007;67324005
C000318|CAPER|444461000124108
C000319|BARBECUE SAUCE|227519005;227527001
C000320|MUSSELS|227150003
C000321|SNOW PEA|442851000124101
C000322|KIDNEY BEANS|227362005
C000323|BUTTER BEANS|227345000;226888007
C000324|BAKED BEANS|227315003
C000325|LENTILS|227350006
C000326|VEAL|226952003
C000327|GORGONZOLA CHEESE|710041006;102264005
C000328|LIMA BEANS|412056003
C000329|COUSCOUS|227754000
C000330|MAHI MAHI|444141000124104
C000331|AMERICAN CHEESE|102264005;443971000124108
C000332|RUTABAGA|227266005
C000333|SOFT CHEESE|226848002;102264005
C000334|LOBSTER|736162008
C000335|PIMENTO|442701000124108
C000336|SALAMI|227018006
C000337|GRUYERE CHEESE|226834002;102264005
C000338|CREAMY SALAD DRESSING|227545001;227551006
C000339|WATER CHESTNUT|260188004;227276008
C000340|STUFFING MIX|227762008
C000341|RASPBERRY EXTRACT|421013007;412289008
C000342|VENISON|442561000124101
C000343|DAB|227058008
C000344|EGG NOODLES|226736006;226735005
C000345|MARJORAM|227405008
C000346|ALMOND OIL|420316002;256350002;391737006
C000347|GROUND GINGER|227400003;227401004
C000348|POULTRY|28230009
C000349|RYE BREAD|226584004;226559002;412068007
C000350|BLACK OLIVE|891000161106
C000351|JICAMA|443741000124103
C000352|CHESTNUT|260188004
C000353|POPPY SEED|227409002
C000354|SHORTBREAD|226715009
C000355|SCALLOP|736027000
C000356|CANNED BEANS|227314004
C000357|BUTTERNUT|442321000124102
C000358|BURGER|227004004
C000359|POTATO SALAD|227927005;227940000;735053000
C000360|WHITE BREAD|226559002;226590000
C000361|TANGERINE|256316006
C000362|ANCHOVY|735337006
C000363|PINTO BEANS|227360002
C000364|STOUT|226507008
C000365|SMOKED SALMON|735009005;227134006
C000366|PLUM|735051003
C000367|CORN SNACKS|412357001;227587004
C000368|GRITS|442541000124100
C000369|TAHINI PASTE|227516003
C000370|RAVIOLI|226743000
C000371|MANGO CHUTNEY|227541005;227543008
C000372|CHUTNEY|227541005
C000373|MILK CHOCOLATE|227610000;102262009;70813002
C000374|MARMALADE|227604000
C000375|HOMINY|229939007
C000376|FINGER FOOD|228016008
C000377|CARAWAY SEED|227381002
C000378|RYE FLOUR|63766005;229940009;412068007
C000379|PRAWNS|227151004
C000380|DUMPLING|227755004
C000381|ENDIVE|726758002
C000382|PLANTAIN|227259009
C000383|TEMPEH|227364006
C000384|ARUGULA|442591000124109
C000385|SESAME SEED|260167008
C000386|FRESH FRUIT|227416001;72511004
C000387|SWORDFISH|726731009
C000388|GREEK YOGURT|226878006;226863004
C000389|MUSTARD SEED|51905005;227406009
C000390|COCONUT CREAM|227499009;735211005;255621006
C000391|BRUSSELS SPROUTS|735122004
C000392|EGG PRODUCT|414074006
C000393|FENNEL|227396003
C000394|PILAF|227907009
C000395|FRENCH DRESSING|227546000
C000396|ROQUEFORT CHEESE|102264005;226840009
C000397|CORN OIL|735247006;17558001;412357001
C000398|PRALINE|444111000124103
C000399|CUMIN SEED|227392001
C000400|VEGETABLE JUICE|22836000;129561006;129559002
C000401|LIVER SAUSAGE|227020009;227029005
C000402|MOUSSE|227734001
C000403|CURRANTS|227453007
C000404|RADISH|256325000
C000405|PINE NUT|227511008;13577000
C000406|VINAIGRETTE|443941000124100
C000407|RISOTTO|227759005
C000408|LEEK|726755004
C000409|CHICKEN ROLL|226955001;227032008
C000410|SAUSAGE ROLL|227020009;227677006
C000411|SEV|229910007
C000412|DRINKS|226465004
C000413|FLAVORED CHEESE SPREAD|226809002;226811006
C000414|DRY SHERRY|226057007;226522003
C000415|CAVIAR|911000161109
C000416|TROUT|735034005
C000417|BLACK-EYED PEA|227343007
C000418|SAFFLOWER OIL|54041009;411316006
C000419|TURNIP|227275007
C000420|FENNEL SEED|227397007;227396003
C000421|QUINCE|227443006
C000422|HORSERADISH SAUCE|735040003;227519005;227533005
C000423|TAMARI|443631000124104
C000424|SNOW PEA POD|442851000124101
C000425|SALTED PEANUTS|227510009
C000426|DARK CORN SYRUP|229863003;412064009
C000427|LUNCHEON MEAT|227036006;28647000
C000428|CURRANT|227453007
C000429|TURKEY SAUSAGE|227020009;227027007
C000430|SQUID|735006003
C000431|SHOYU|443791000124107
C000432|OKRA|227254004
C000433|MUSCOVADO SUGAR|280990009
C000434|TAMARIND|226061001
C000435|SUNFLOWER SEED|260205009
C000436|HOT CEREAL|226617008;23182003
C000437|DRIPPING|226898001
C000438|BARLEY|735124003
C000439|HADDOCK|735033004
C000440|BLACK PUDDING|227010004
C000441|GRAPEFRUIT|256315005
C000442|FRIED EGG|226883003
C000443|NECTARINE|227435001
C000444|WHITE FLOUR|229951009;63766005
C000445|TZATZIKI|227637003
C000446|OMELETTE|227639000
C000447|ARROWROOT|226720009
C000448|FRANKFURTER|227021008
C000449|CHOCOLATE SPREAD|229861001;102262009
C000450|CHOCOLATE MILK|70813002;46329000;102262009
C000451|SOY FLOUR|63766005;229941008
C000452|MILLET FLOUR|63766005;229942001
C000453|BUTTERMILK POWDER|226774003;226769006
C000454|MISO|227354002
C000455|WHOLE MILK|70813002;226767008
C000456|MACARONI|226742005
C000457|FARRO|443811000124106
C000458|TOMATO CHUTNEY|227544002;227541005;734881000
C000459|ONION SAUCE|227519005;227524008;735047000
C000460|QUARK|226862009
C000461|FUDGE|229885009
C000462|SARDINE|227136008
C000463|FRENCH FRIES|227282006
C000464|SCONE|226707006
C000465|SORBET|227739006
C000466|COURGETTE|227239005
C000467|WALNUT OIL|229929001
C000468|MACADAMIA NUT|13577000;227501001
C000469|CURRY SAUCE|227519005;227532000
C000470|WHEY|226770007
C000471|RAW EGG|226885005
C000472|HEMP SEED|442831000124108
C000473|JACKFRUIT|227247005
C000474|TOMATO PUREE|227274006;734881000
C000475|HEMP MILK|70813002;442841000124103
C000476|KIWI FRUIT|260176001;72511004
C000477|SUNFLOWER OIL|328568007
C000478|CANNED FRUIT|227465006;72511004
C000479|BOILED EGG|226882008
C000480|ARTIFICIAL SWEETENER|116274004
C000481|DOUGHNUT|226686009
C000482|MINCEMEAT|227605004
C000483|TRIFLE|227747006
C000484|PEPPERMINT OIL|227625000;317164001;52283007
C000485|EGG CUSTARD|227696005;227689008
C000486|CHOCOLATE MOUSSE|102262009;227735000;227734001
C000487|CHOCOLATE CANDY|102262009;227607007;227608002
C000488|SHARK|227101009
C000489|GOLDEN SYRUP|229862008;229864009
C000490|LEMONGRASS|821000161108
C000491|NOUGAT|229888006
C000492|TURKISH DELIGHT|227627008
C000493|CASSAVA|227234000
C000494|ICING SUGAR|229871004;230054001
C000495|POPSICLE|443951000124103
C000496|PUMPKIN SEED|227260004;227514000
C000497|BLACK TEA|16313001;226476000
C000498|FRUIT SPREAD|229866006;72511004
C000499|BABY FOOD|227983006
C000500|LEMON CURD|735340006;227603006
C000501|ORANGE OIL|47677002;411373005
C000502|SUET|226900004
C000503|HALWA|226695001
C000504|YAM|726730005
C000505|MUNG BEANS|227355001
C000506|CITRUS JUICE|456771000124101;129559002
C000507|CHICK PEA FLOUR|229934002;63766005
C000508|GUAVA|227429001
C000509|SAGO|226731001
C000510|ANISE OIL|420343007;57720001
C000511|LICORICE CANDY|227607007;227623007
C000512|CRUNCHY PEANUT BUTTER|227508007;102260001
C000513|ROYAL ICING|229875008;229871004
C000514|DOUBLE CREAM|226798005;255621006
C000515|MULBERRIES|227434002
C000516|ELDERBERRIES|227424006
C000517|CLEMENTINE|227420002
C000518|TRAIL MIX|226062008
C000519|CAROB|420737008
C000520|KUMQUAT|227431005
C000521|DRIED MIXED FRUIT|72511004;227456004
C000522|BUTTER ICING|229871004;226888007;229872006
C000523|GOOSEBERRIES|227427004
C000524|SMOOTH PEANUT BUTTER|227507002;102260001
C000525|DRIED PINEAPPLE|227460001;256313003
C000526|GOAT'S MILK|70813002;83595008
C000527|SULTANAS|227464005
C000528|CINNAMON OIL|227388008;68379000
C000529|FLAPJACK|226692003
C000530|DIGESTIVE BISCUIT|226548006
C000531|POMELO|227442001
C000532|LYCHEE|227433008
C000533|TARO|227272005
C000534|DRIED BANANA|227450005;256307007
C000535|PARSNIP|726753006
C000536|COOKED FRUIT|444031000124108;72511004
C000537|DRY FOOD|228009007
C000538|FRUIT CAKE|226652000;226639005;72511004
C000539|PEPPERMINT CREAM|227625000;229890007
C000540|GELATO|443881000124104
C000541|FRESH COCONUT|735211005;227496002
C000542|CHOCOLATE COVERED CARAMEL|102262009;229877000
C000543|FRUIT PIE|227702005;72511004
C000544|TAPIOCA PUDDING|442731000124100;226733003
C000545|DESICCATED COCONUT|735211005;227498001
C000546|GLACE CHERRY|735248001;227461002
C000547|COLA DRINK|226481009;230118003
C000548|GOOSEBERRY|227427004
C000549|PEANUT BRITTLE|762952008;229889003
C000550|SHORTCRUST PASTRY|226749001;226754005
C000551|BREAKFAST CEREAL|226598007;23182003
C000552|DRIED APRICOT|735214002;227452002
C000553|HALVA|229893009
C000554|NUTS AND SEEDS|230034002
C000555|SPONGE CAKE|226639005;226663002
C000556|COFFEE WITH MILK|70813002;226470006;29263009
C000557|SNAIL|457131000124102
C000558|NON-DAIRY CREAMER|442711000124106
C000559|ELDERBERRY|227424006
C000560|JAM SANDWICH|735008002;229926008;227601008
C000561|BRANDY SNAP|226019007;226677004
C000562|FROZEN MOUSSE|227734001;227737008
C000563|ROSE WINE|226053006;35748005
C000564|ABSINTHE|311455009
C000565|SPORTS DRINK|226499001;230118003
C000566|NUTMEG OIL|65592004;735046009;411370008
C000567|PALE ALE|226501009
C000568|SOURSOP|442331000124104
C000569|DRIED APPLE|735215001;227451009
C000570|CITRUS FRUIT|72511004;102259006
C000571|LAGER|226036004
C000572|APPLE FLAVOR|229775001;735215001
C000573|COFFEE BEAN|445571000124101;256354006;29263009
C000574|ROAST PORK|226934003;226938000
C000575|ORANGE ROUGHY|227130002
C000576|FLOUNDER|442621000124106
C000577|SCAMPI|227156009
C000578|ROAST TURKEY|226968009
C000579|SEA BASS|726749009
C000580|GROUPER|444151000124102
C000581|FOODS|255620007